{
  "name": "react-hooks-template",
  "reason": {
    "react-jsx": 3
  },
  "sources": [
    {
      "dir": "src",
      "subdirs": true
    }
  ],
  "package-specs": [
    {
      "module": "commonjs",
      "in-source": true
    }
  ],
  "suffix": ".bs.js",
  "namespace": true,
  "bs-dependencies": [
    "reason-react",
    "reductive",
    "bs-fetch",
    "@glennsl/bs-json",
    "reductive-dev-tools"
  ],
  "refmt": 3,
  "warnings": {
    "number": "+A-48-42-40-44-102",
    "error": "+A-3-44-102"
  }
}
